<svg xmlns="http://www.w3.org/2000/svg" width="400" height="400" viewBox="0 0 200 200">
  <!-- HTML Tags -->
  <polyline points="20,80 40,50 20,20" fill="none" stroke="#6C63FF" stroke-width="4"/>
  <polygon points="180,120 160,150 180,180" fill="#6C63FF"/>

  <!-- Piano Keys -->
  <!-- White keys -->
  <rect x="60" y="40" width="25" height="120" style="fill:transparent;stroke:black"/>
  <rect x="85" y="40" width="25" height="120" style="fill:transparent;stroke:black"/>
  <rect x="110" y="40" width="25" height="120" style="fill:transparent;stroke:black"/>

  <!-- Black keys -->
  <rect x="80" y="40" width="15" height="80" style="fill:black;stroke:black"/>
  <rect x="105" y="40" width="15" height="80" style="fill:black;stroke:black"/>
</svg>
